2021-10-01 09:58:56.1939|INFO|PIMSPE.MainWindow|Dodaje karte: 
KOD: WIN_2S_SELENE
 KATEGORIA: Sofa
 KOD DOSTAWCY:
 CENA:
 MARKA:Windsor & Co
 WAGA:0
 ATRCOLOR=brak ATRREF=brak ATRHEIG=1
 ILOSC:0
 EAN:
2021-10-01 09:58:58.1256|ERROR|PIMSPE.log|Brak dostawy o kodzie 
2021-10-01 09:58:58.4626|ERROR|PIMSPE.log|Cena zerowa dla towaru WIN_2S_SELENE
2021-10-01 09:59:22.7403|INFO|PIMSPE.MainWindow|Dodaje karte: 
KOD: WIN_2S_NEPTUNE
 KATEGORIA: Sofa
 KOD DOSTAWCY:
 CENA:
 MARKA:Windsor & Co
 WAGA:0
 ATRCOLOR=brak ATRREF=brak ATRHEIG=1
 ILOSC:0
 EAN:
2021-10-01 09:59:23.5090|ERROR|PIMSPE.log|Brak dostawy o kodzie 
2021-10-01 09:59:23.7378|ERROR|PIMSPE.log|Cena zerowa dla towaru WIN_2S_NEPTUNE
2021-10-01 09:59:41.9295|INFO|PIMSPE.MainWindow|Dodaje karte: 
KOD: WIN_2S_JUPITER
 KATEGORIA: Sofa
 KOD DOSTAWCY:
 CENA:
 MARKA:Windsor & Co
 WAGA:0
 ATRCOLOR=brak ATRREF=brak ATRHEIG=1
 ILOSC:0
 EAN:
2021-10-01 09:59:42.6992|ERROR|PIMSPE.log|Brak dostawy o kodzie 
2021-10-01 09:59:42.9281|ERROR|PIMSPE.log|Cena zerowa dla towaru WIN_2S_JUPITER
2021-10-01 10:00:02.1047|INFO|PIMSPE.MainWindow|Dodaje karte: 
KOD: WIN_3S_PYXIS
 KATEGORIA: Sofa
 KOD DOSTAWCY:
 CENA:
 MARKA:Windsor & Co
 WAGA:0
 ATRCOLOR=brak ATRREF=brak ATRHEIG=1
 ILOSC:0
 EAN:
2021-10-01 10:00:02.9107|ERROR|PIMSPE.log|Brak dostawy o kodzie 
2021-10-01 10:00:03.1394|ERROR|PIMSPE.log|Cena zerowa dla towaru WIN_3S_PYXIS
2021-10-01 10:00:20.6938|INFO|PIMSPE.MainWindow|Dodaje karte: 
KOD: WIN_3S_GRAVITY
 KATEGORIA: Sofa
 KOD DOSTAWCY:
 CENA:
 MARKA:Windsor & Co
 WAGA:0
 ATRCOLOR=brak ATRREF=brak ATRHEIG=1
 ILOSC:0
 EAN:
2021-10-01 10:00:21.4491|ERROR|PIMSPE.log|Brak dostawy o kodzie 
2021-10-01 10:00:21.6828|ERROR|PIMSPE.log|Cena zerowa dla towaru WIN_3S_GRAVITY
2021-10-01 10:00:40.4859|INFO|PIMSPE.MainWindow|Dodaje karte: 
KOD: WIN_3S_NEPTUNE
 KATEGORIA: Sofa
 KOD DOSTAWCY:
 CENA:
 MARKA:Windsor & Co
 WAGA:0
 ATRCOLOR=brak ATRREF=brak ATRHEIG=1
 ILOSC:0
 EAN:
2021-10-01 10:00:41.2547|ERROR|PIMSPE.log|Brak dostawy o kodzie 
2021-10-01 10:00:41.4946|ERROR|PIMSPE.log|Cena zerowa dla towaru WIN_3S_NEPTUNE
2021-10-01 10:00:59.0055|INFO|PIMSPE.MainWindow|Dodaje karte: 
KOD: WIN_3S_CIRRUS
 KATEGORIA: Sofa
 KOD DOSTAWCY:
 CENA:
 MARKA:Windsor & Co
 WAGA:0
 ATRCOLOR=brak ATRREF=brak ATRHEIG=1
 ILOSC:0
 EAN:
2021-10-01 10:00:59.7659|ERROR|PIMSPE.log|Brak dostawy o kodzie 
2021-10-01 10:00:59.9966|ERROR|PIMSPE.log|Cena zerowa dla towaru WIN_3S_CIRRUS
2021-10-01 10:01:20.4639|INFO|PIMSPE.MainWindow|Dodaje karte: 
KOD: WIN_3S_JUPITER
 KATEGORIA: Sofa
 KOD DOSTAWCY:
 CENA:
 MARKA:Windsor & Co
 WAGA:0
 ATRCOLOR=brak ATRREF=brak ATRHEIG=1
 ILOSC:0
 EAN:
2021-10-01 10:01:21.2262|ERROR|PIMSPE.log|Brak dostawy o kodzie 
2021-10-01 10:01:21.4590|ERROR|PIMSPE.log|Cena zerowa dla towaru WIN_3S_JUPITER
